{
  "connection": "default",
  "collectionName": "employees",
  "info": {
    "name": "employee"
  },
  "options": {
    "increments": true,
    "timestamps": true
  },
  "attributes": {
    "fullName": {
      "type": "string"
    },
    "address": {
      "type": "richtext"
    },
    "picture": {
      "collection": "file",
      "via": "related",
      "plugin": "upload",
      "required": false
    },
    "phoneNumber": {
      "type": "string"
    },
    "nationalCode": {
      "type": "string"
    }
  }
}
